module gitlab.com/Alfred456654/aoc-utils

go 1.23.2

require (
	github.com/stretchr/testify v1.10.0
	golang.org/x/exp v0.0.0-20241108190413-2d47ceb2692f
)

require (
	github.com/davecgh/go-spew v1.1.1 // indirect
	github.com/pmezard/go-difflib v1.0.0 // indirect
	gopkg.in/yaml.v3 v3.0.1 // indirect
)
